noeud_id%;%option%;%texte%;%perso_id%;%scène_id%;%racine?%;%
p%;%{'Ok': 'b'}%;%Votre histoire commence...%;%Narrateur01%;%Vide01%;%True%;%
p0%;%{'Autant faire mon propre journal...': None, 'Je gravirai les échelons à la vitesse de la lumière !': None}%;%Visiblement vous progressez... qui sait%,% peut-être que dans dix ans vous ne nettoierez plus les toilettes ?%;%Narrateur01%;%Vide01%;%False%;%
z%;%{'Merci ?': 'p0'}%;%:GAME=01:Mouais%,% presque pas exécrable%,% ça fera l'affaire.%;%Patron01%;%journal01%;%False%;%
t%;%{'Oui monsieur...': 'z'}%;%Buib est en burn-out%,% écris un article à sa place !!!%;%Patron01%;%journal01%;%False%;%
8%;%{'Pfff...': 't'}%;%=Nom=%,% ramène-toi ici !!!%;%Patron01%;%journal01%;%False%;%
f%;%{' ': '8'}%;%Et un jour...%;%Narrateur01%;%Vide01%;%False%;%
4%;%{'Pas ouf...': 'f'}%;%Et votre vie se résume à ça pendant 6 mois.%;%Narrateur01%;%Vide01%;%False%;%
6%;%{' ': '4'}%;%Bonjour !%;%Vous02%;%briocheetoilee01%;%False%;%
w%;%{' ': '6'}%;%Vous allez dans le Brioche Étoilée le plus proche.%;%Narrateur01%;%Vide01%;%False%;%
n%;%{}%;%2 jours plus tard...%;%Narrateur01%;%Pont01%;%False%;%
j%;%{' ': 'n'}%;%Monsieur%,% je pensais être en stage de journalisme...%;%Vous02%;%Toilettes01%;%False%;%
m%;%{'Obéir': 'w', 'Refuser': 'j'}%;%=Nom=%,% ramène moi un café sans sucre avec du lait pas trop amère bio-équitable brésilien énergisant avec un sachet de sucre.%;%Patron01%;%Toilettes01%;%False%;%
h%;%{' ': 'm'}%;%Vous vous retrouvez stagiaire dans les "Moeurs Futures"%,% et au début%,% vous pensiez franchement vous être trompé sur Linkedeed...%;%Narrateur01%;%Vide01%;%False%;%
b%;%{' ': 'h'}%;%Fraîchement sorti d'école de journalisme%,% impatient de découvrir cet univers formidable%,% vous prenez la première offre d'emploi à votre portée.%;%Narrateur01%;%Vide01%;%False%;%
