noeud_id%;%option%;%texte%;%perso_id%;%scène_id%;%racine?%;%
p%;%{'Ok': 'b'}%;%Votre histoire commence...%;%Narrateur01%;%Vide01%;%True%;%
b%;%{' ': 'h'}%;%Fraîchement sorti d'école de journalisme%,% impatient de découvrir cet univers formidable%,% vous prenez la première offre d'emploi à votre portée.%;%Narrateur01%;%Vide01%;%False%;%
h%;%{' ': 'm'}%;%Vous vous retrouvez stagiaire dans les "Moeurs Futures"%,% et au début%,% vous pensiez franchement vous être trompé sur Linkedeed...%;%Narrateur01%;%Vide01%;%False%;%
m%;%{'Obéir': 'w', 'Refuser': 'j'}%;%=Nom=%,% ramène moi un café sans sucre avec du lait pas trop amère bio-équitable brésilien énergisant avec un sachet de sucre.%;%Patron01%;%Toilettes01%;%False%;%
j%;%{' ': 'n'}%;%Monsieur%,% je pensais être en stage de journalisme...%;%Vous02%;%Toilettes01%;%False%;%
n%;%{}%;%2 jours plus tard...%;%Narrateur01%;%Pont01%;%False%;%
w%;%{' ': '6'}%;%Vous allez dans le Brioche Étoilée le plus proche.%;%Narrateur01%;%Vide01%;%False%;%
6%;%{' ': '4'}%;%Bonjour !%;%Vous02%;%briocheetoilee01%;%False%;%
4%;%{'Pas ouf...': 'f'}%;%Et votre vie se résume à ça pendant 6 mois.%;%Narrateur01%;%Vide01%;%False%;%
f%;%{' ': '8'}%;%Et un jour...%;%Narrateur01%;%Vide01%;%False%;%
8%;%{'Pfff...': 't'}%;%=Nom=%,% ramène-toi ici !!!%;%Patron01%;%journal01%;%False%;%
t%;%{'Oui monsieur...': 'z'}%;%Buib est en burn-out%,% écris un article à sa place !!!%;%Patron01%;%journal01%;%False%;%
z%;%{'Merci ?': 'p0'}%;%:GAME=01:Mouais%,% presque pas exécrable%,% ça fera l'affaire.%;%Patron01%;%journal01%;%False%;%
p0%;%{'Autant faire mon propre journal...': 'k', 'Je gravirai les échelons à la vitesse de la lumière !': '2'}%;%Visiblement vous progressez... qui sait%,% peut-être que dans dix ans vous ne nettoierez plus les toilettes ?%;%Narrateur01%;%Vide01%;%False%;%
2%;%{'Oui Monsieur !': 'mf'}%;%Maintenant retournez nettoyer mes toilettes !%;%Patron01%;%journal01%;%False%;%
mf%;%{' ': '5'}%;%Quelques temps plus tard...%;%Narrateur01%;%Vide01%;%False%;%
5%;%{'Euh...': 'd', 'Merci Monsieur ! Je ne vous déceverais pas !': 'y'}%;%=Nom= vous êtes promu... Buib a démissionné et vous aviez fait un bon taf la dernière fois...%;%Patron01%;%journal01%;%False%;%
y%;%{'Ok...': 'r3'}%;%J'espère bien. Vous êtes embauché pour le magnifique salaire de... 15000€/an%;%Patron02%;%journal01%;%False%;%
r3%;%{'Chef oui chef !': 'r4'}%;%Maintenant faut bosser =Nom=%;%Patron02%;%journal01%;%False%;%
r4%;%{'Merci monsieur !': 'r5'}%;%:GAME=01:Pas trop mal =Nom=%;%Patron02%;%journal01%;%False%;%
r5%;%{'Bonjour Kevin': '2j'}%;%Pas mal le nouveau. Moi c'est Kevin%;%Collègue01%;%journal01%;%False%;%
2j%;%{'Merci Kévin... je te suis': '4a'}%;%Viens je vais te montrer ton bureau%;%Collègue01%;%journal01%;%False%;%
4a%;%{"Ah ouais... Je m'attendais à mieux...": '5c', 'OOOOH STYLÉ !!!': 'tt'}%;%Voilà !!!%;%Collègue01%;%bureau01%;%False%;%
tt%;%{'Cool': 'ttt'}%;%Bravo, vous êtes maintenant proche de Kévin%;%Narrateur01%;%bureau01%;%False%;%
ttt%;%{"J'espère bien": '615'}%;%Votre histoire ne fait que commencer%;%Narrateur01%;%Vide01%;%False%;%
615%;%{' ': None}%;%La suite au prochain épisode%;%Narrateur01%;%Vide01%;%False%;%
5c%;%{"Monsieur c'est pas ce que je voulais dire !": 'fm', "C'est Kévin qui a dit ça... C'est lui le responsable !": 'fn'}%;%VOUS ÊTES VIRÉS !!!%;%Patron02%;%bureau01%;%False%;%
fn%;%{'Ouf': '26', 'Je retourne travailler monsieur': '27'}%;%TU ES VIRÉ KÉVIN... et toi aussi Bobby...%;%Patron01%;%journal01%;%False%;%
27%;%{' ': '28'}%;%J'espère bien =Nom=%;%Patron01%;%journal01%;%False%;%
28%;%{'Merci Monsieur': '29'}%;%:GAME=13: Vous êtes promu à nouveau =Nom=%;%Patron01%;%journal01%;%False%;%
29%;%{}%;%Non c'est faux vous êtes viré =Nom=%;%Patron01%;%journal01%;%False%;%
26%;%{'Ah': 'n'}%;%TU ES VIRÉ =Nom=%;%Patron01%;%journal01%;%False%;%
fm%;%{'NNNOOOONNNN !!!': 'v'}%;%TU ES VIRÉ QUAND MÊME... toi aussi Kévin et toi aussi Bobby...%;%Patron01%;%journal01%;%False%;%
v%;%{}%;%Bon je vais aller viré d'autres gens...%;%Patron01%;%journal01%;%False%;%
d%;%{'AAAAAAH !!': 'n'}%;%Vous semblez pas sûr de votre choix... VOUS ÊTES LICENCIÉ !!!%;%Patron01%;%journal01%;%False%;%
k%;%{"J'adore le capitalisme...": 'c'}%;%Peut-être%,% mais ce n'est pas en tant qu'apprenti stagiaire journaliste option café que vous réunirez les fonds nécessaires... TROUVEZ UN TRAVAIL !!!%;%Narrateur01%;%Vide01%;%False%;%
c%;%{'Mais... Mais...': 'e'}%;%:GAME=11:ENCORE !!%;%Narrateur01%;%Vide01%;%False%;%
e%;%{"TOUJOURS PLUS D'ARGENT !!!": 's', 'NON ! #droitàlaparesse': '4p'}%;%:GAME=12:TRAVAIL TOUJOURS PLUS POUR GAGNER PLUS !!!%;%Narrateur01%;%Vide01%;%False%;%
4p%;%{'Wouhouhou...': 'l'}%;%Ok%,% avec l'argent que tu as "durement" gagné%,% tu arrives à acheter un ordinateur datant du siècle dernier.%;%Narrateur01%;%Vide01%;%False%;%
l%;%{'Je vais peut-être plutôt changer de voie': None, 'THIS IS SPARTA': None}%;%Et pour les locaux... Tu te contenteras de rentabiliser le placard à balais qui te sert d'appartement.%;%Narrateur01%;%PlacardABalais01%;%False%;%
s%;%{'Hein ?': '8w'}%;%:GAME=13:Félicitations =Nom= tu as atteint le paradis du MEDEF.%;%Narrateur02%;%ParadisPatrons01%;%False%;%
8w%;%{'encore ?': 'r'}%;%Tu vas pouvoir travailler encore et encore et encore et...%;%Narrateur02%;%ParadisPatrons01%;%False%;%
r%;%{'encore...': 'r'}%;%:GAME=13:Et...%;%Narrateur02%;%ParadisPatrons01%;%False%;%
